name="Empire Size (500)"
tags={
	"Balance"
	"Gameplay"
}
picture="empiresize500.png"
supported_version="2.7.*"
path="C:/Users/Alexa/Documents/Paradox Interactive/Stellaris/mod/coresystems"
remote_file_id="683422672"